1 The DNAzyme-like Motif Discovery – DNAzyme-like Motifs, Horizontal Gene Transfer, and Short Linear Motif Conservation in Potyviridae
…
Code

bhits <- dplyr::select(bhits, c(Query, query_accver, seqname = subject_accver, s_start, s_end))

bhits <- bhits %>%
  dplyr::mutate(
    strand = case_when(bhits$s_end <= bhits$s_start ~ "-",
                       bhits$s_end >= bhits$s_start ~ "+"),
    start = case_when(strand == "+" ~ s_start, strand == "-" ~ s_end),
    end   = case_when(strand == "+" ~ s_end,   strand == "-" ~ s_start))
bhits

# A tibble: 586 × 8
   Query                query_accver seqname s_start  s_end strand  start    end
   <chr>                <chr>        <chr>     <dbl>  <dbl> <chr>   <dbl>  <dbl>
 1 MN059547.1 Leek yel… MN059547.1   OZ3368…  7.08e7 7.08e7 +      7.08e7 7.08e7
 2 MN059547.1 Leek yel… MN059547.1   OZ2776…  7.96e7 7.96e7 +      7.96e7 7.96e7
 3 MN059547.1 Leek yel… MN059547.1   OZ2564…  5.42e6 5.42e6 +      5.42e6 5.42e6
 4 MN059547.1 Leek yel… MN059547.1   OZ2564…  1.00e7 1.00e7 +      1.00e7 1.00e7
 5 MN059547.1 Leek yel… MN059547.1   LR6971…  2.34e7 2.34e7 +      2.34e7 2.34e7
 6 MN059547.1 Leek yel… MN059547.1   OZ2209…  1.78e7 1.78e7 +      1.78e7 1.78e7
 7 MN059547.1 Leek yel… MN059547.1   OZ2100…  3.86e6 3.86e6 +      3.86e6 3.86e6
 8 MN059547.1 Leek yel… MN059547.1   OZ2078…  4.85e6 4.85e6 +      4.85e6 4.85e6
 9 MN059547.1 Leek yel… MN059547.1   OZ1726…  5.72e7 5.72e7 +      5.72e7 5.72e7
10 MN059547.1 Leek yel… MN059547.1   OZ1564…  5.33e7 5.33e7 +      5.33e7 5.33e7
# ℹ 576 more rows
…
      str_detect(Description, "chromosome: ") ~
        str_extract(Description, "chromosome: .*") %>%
        str_replace("chromosome: ", ""),
      TRUE ~ NA_character_),
    misc = case_when(
      str_detect(Description, " genome assembly") ~ "genome assembly",
      str_detect(Description, "cultivar") ~ str_extract(Description, "cultivar.*"),
      str_detect(Description, "isolate") ~ str_extract(Description, "isolate.*"),
      str_detect(Description, "strain")  ~ str_extract(Description, "strain.*"),
      TRUE ~ NA_character_),
    query_acc  = str_extract(query, "(^.*\\.1)(.*virus)(.*)", group = 1),
    query_name = str_extract(query, "(^.*\\.1 )(.*virus)(.*)", group = 2))
descs

# A tibble: 478 × 18
   seq_acc   Description name  `Common Name `  taxid `Max Score ` `Total Score `
   <chr>     <chr>       <chr> <chr>           <dbl>        <dbl>          <dbl>
 1 OZ336855… Urochloa h… Uroc… <NA>           2.40e5         36.2           36.2
 2 OZ277620… Urochloa h… Uroc… <NA>           2.40e5         36.2           36.2
 3 OZ256460… Schizopore… Schi… <NA>           2.59e6         36.2           36.2
 4 OZ256458… Schizopore… Schi… <NA>           2.59e6         36.2           70.4
 5 LR697111… Chanos cha… Chan… milkfish       2.91e4         36.2           36.2
 6 OZ220916… Cossus cos… Coss… <NA>           7.53e5         36.2           36.2
 7 OZ210057… Sclerolinu… Scle… <NA>           1.68e5         36.2           36.2
 8 OZ207848… Donax vari… Dona… <NA>           1.92e6         36.2           36.2
 9 OZ172645… Spongia of… Spon… commercial sp… 2.53e5         36.2           36.2
10 OZ156448… Phyllospon… Phyl… <NA>           5.94e5         36.2           70.4
# ℹ 468 more rows
# ℹ 11 more variables: `Query Cover ` <chr>, `E value ` <dbl>,
#   `Per. Ident ` <chr>, acc_len <dbl>, query <chr>, QuerySeq <chr>, acc <chr>,
#   chromosome <chr>, misc <chr>, query_acc <chr>, query_name <chr>
…
Code

bhitsstretched <- hitsgr %>% plyranges::stretch(., 3000)
bhitsstretchedtb <- as_tibble(bhitsstretched) %>%
  dplyr::mutate(region = paste0(acc, ".", strand, ":", start, "-", end))
bhitstb <- as_tibble(hitsgr)

Code

bhitstb %>% group_by(name) %>%
  summarise(n_isolates = n_distinct(name), n_chromosome = n_distinct(chromosome)) %>%
  arrange(desc(n_isolates)) %>% arrange(desc(n_chromosome))

# A tibble: 335 × 3
   name                   n_isolates n_chromosome
   <chr>                       <int>        <int>
 1 Spongia officinalis             1           16
 2 Flueggea virosa                 1           12
 3 Idaea aversata                  1            5
 4 Idaea trigeminata               1            5
 5 Barylypa propugnator            1            4
 6 Fragaria x ananassa             1            4
 7 Phalonidia manniana             1            4
 8 Urochloa humidicola             1            4
 9 Ziziphus jujuba                 1            4
10 Ectropis crepuscularia          1            3
# ℹ 325 more rows
…
screenshot of blast hits (taxonomy report) for viral flanks of a turnip mosaic virus

Code

annotated <- descvir %>%
  dplyr::filter(str_detect(seq_acc, "_") | str_detect(Description, "mRNA")) %>%
  dplyr::rename(seqname = seq_acc) %>%
  left_join(., hits) %>%
  select(-c("s_start", "s_end", "Max Score ", "Total Score ",
            "Query Cover ", "E value ", "Per. Ident ", "chromosome", "misc"))
annotated

# A tibble: 27 × 18
   seqname  Description name  `Common Name `  taxid acc_len query QuerySeq acc  
   <chr>    <chr>       <chr> <chr>           <dbl>   <dbl> <chr> <chr>    <chr>
 1 XM_0160… PREDICTED:… Zizi… common jujube  3.27e5    1604 MN05… CATATAC… XM_0…
 2 XM_0252… PREDICTED:… Poma… <NA>           4.01e5    6928 OR23… AGTATAT… XM_0…
 3 XR_0030… PREDICTED:… Poma… <NA>           4.01e5    9538 OR23… AGTATAT… XR_0…
 4 XM_0252… PREDICTED:… Poma… <NA>           4.01e5    7883 OR23… AGTATAT… XM_0…
 5 XM_0649… Schefferso… Sche… <NA>           1.79e6    3594 OR23… AGTATAT… XM_0…
 6 XM_0612… PREDICTED:… Syng… broad-nosed p… 1.62e5    8879 OR23… AGTATAT… XM_0…
 7 XM_0612… PREDICTED:… Syng… broad-nosed p… 1.62e5    8852 OR23… AGTATAT… XM_0…
 8 XM_0612… PREDICTED:… Syng… broad-nosed p… 1.62e5    8900 OR23… AGTATAT… XM_0…
 9 XM_0612… PREDICTED:… Syng… broad-nosed p… 1.62e5    8945 OR23… AGTATAT… XM_0…
10 XM_0612… PREDICTED:… Syng… broad-nosed p… 1.62e5    9029 OR23… AGTATAT… XM_0…
# ℹ 17 more rows
# ℹ 9 more variables: query_acc <chr>, query_name <chr>, query_taxid <dbl>,
#   query_acc_len <dbl>, Query <chr>, query_accver <chr>, strand <chr>,
#   start <dbl>, end <dbl>
…
