6 Horizontal Gene Transfer Analysis – DNAzyme-like Motifs, Horizontal Gene Transfer, and Short Linear Motif Conservation in Potyviridae
…
      str_detect(Description, "chromosome: ") ~
        str_extract(Description, "chromosome: .*") %>%
        str_replace("chromosome: ", ""),
      TRUE ~ NA_character_),
    misc = case_when(
      str_detect(Description, " genome assembly") ~ "genome assembly",
      str_detect(Description, "cultivar") ~ str_extract(Description, "cultivar.*"),
      str_detect(Description, "isolate")  ~ str_extract(Description, "isolate.*"),
      str_detect(Description, "strain")   ~ str_extract(Description, "strain.*"),
      TRUE ~ NA_character_),
    query_acc  = str_extract(query, "(^.*\\.1)(.*virus)(.*)", group = 1),
    query_name = str_extract(query, "(^.*\\.1 )(.*virus)(.*)", group = 2))
descs

# A tibble: 478 × 18
   seq_acc   Description name  `Common Name `  taxid `Max Score ` `Total Score `
   <chr>     <chr>       <chr> <chr>           <dbl>        <dbl>          <dbl>
 1 OZ336855… Urochloa h… Uroc… <NA>           2.40e5         36.2           36.2
 2 OZ277620… Urochloa h… Uroc… <NA>           2.40e5         36.2           36.2
 3 OZ256460… Schizopore… Schi… <NA>           2.59e6         36.2           36.2
 4 OZ256458… Schizopore… Schi… <NA>           2.59e6         36.2           70.4
 5 LR697111… Chanos cha… Chan… milkfish       2.91e4         36.2           36.2
 6 OZ220916… Cossus cos… Coss… <NA>           7.53e5         36.2           36.2
 7 OZ210057… Sclerolinu… Scle… <NA>           1.68e5         36.2           36.2
 8 OZ207848… Donax vari… Dona… <NA>           1.92e6         36.2           36.2
 9 OZ172645… Spongia of… Spon… commercial sp… 2.53e5         36.2           36.2
10 OZ156448… Phyllospon… Phyl… <NA>           5.94e5         36.2           70.4
# ℹ 468 more rows
# ℹ 11 more variables: `Query Cover ` <chr>, `E value ` <dbl>,
#   `Per. Ident ` <chr>, acc_len <dbl>, query <chr>, QuerySeq <chr>, acc <chr>,
#   chromosome <chr>, misc <chr>, query_acc <chr>, query_name <chr>
…
